EESchema Schematic File Version 2
LIBS:power
LIBS:device
LIBS:transistors
LIBS:conn
LIBS:linear
LIBS:regul
LIBS:74xx
LIBS:cmos4000
LIBS:adc-dac
LIBS:memory
LIBS:xilinx
LIBS:microcontrollers
LIBS:dsp
LIBS:microchip
LIBS:analog_switches
LIBS:motorola
LIBS:texas
LIBS:intel
LIBS:audio
LIBS:interface
LIBS:digital-audio
LIBS:philips
LIBS:display
LIBS:cypress
LIBS:siliconi
LIBS:opto
LIBS:atmel
LIBS:contrib
LIBS:valves
LIBS:ThunderDrive
LIBS:power_bridge-cache
EELAYER 25 0
EELAYER END
$Descr A4 11693 8268
encoding utf-8
Sheet 3 5
Title "Monster MK II"
Date "2016-11-02"
Rev "2"
Comp "ThunderDrive"
Comment1 "power h bridge for one phase"
Comment2 ""
Comment3 ""
Comment4 ""
$EndDescr
$Comp
L TPHR8504PL Q4
U 1 1 581AD739
P 6050 3500
F 0 "Q4" V 6200 3350 50  0000 L CNN
F 1 "TPH2R608NH" V 6000 2800 50  0000 L CNN
F 2 "power_bridge:DSOP_ADVANCE" V 6100 2800 50  0001 L CNN
F 3 "" H 5950 3500 50  0000 L CNN
	1    6050 3500
	1    0    0    -1  
$EndComp
$Comp
L TPHR8504PL Q12
U 1 1 581AD740
P 6050 4750
F 0 "Q12" V 6200 4600 50  0000 L CNN
F 1 "TPH2R608NH" V 6000 4050 50  0000 L CNN
F 2 "power_bridge:DSOP_ADVANCE" V 6100 4050 50  0001 L CNN
F 3 "" H 5950 4750 50  0000 L CNN
	1    6050 4750
	1    0    0    -1  
$EndComp
Wire Wire Line
	6050 3700 6050 4550
Connection ~ 6050 4250
Wire Wire Line
	6050 2500 6050 3300
$Comp
L TPHR8504PL Q5
U 1 1 581AD74B
P 6700 3500
F 0 "Q5" V 6850 3350 50  0000 L CNN
F 1 "TPH2R608NH" V 6650 2800 50  0000 L CNN
F 2 "power_bridge:DSOP_ADVANCE" V 6750 2800 50  0001 L CNN
F 3 "" H 6600 3500 50  0000 L CNN
	1    6700 3500
	1    0    0    -1  
$EndComp
$Comp
L TPHR8504PL Q13
U 1 1 581AD752
P 6700 4750
F 0 "Q13" V 6850 4600 50  0000 L CNN
F 1 "TPH2R608NH" V 6650 4050 50  0000 L CNN
F 2 "power_bridge:DSOP_ADVANCE" V 6750 4050 50  0001 L CNN
F 3 "" H 6600 4750 50  0000 L CNN
	1    6700 4750
	1    0    0    -1  
$EndComp
Wire Wire Line
	6400 3550 6300 3550
Wire Wire Line
	6300 3550 6300 3150
Wire Wire Line
	3700 3150 8150 3150
Wire Wire Line
	6700 3700 6700 4550
Wire Wire Line
	6400 4800 6300 4800
Wire Wire Line
	6300 4800 6300 4400
Wire Wire Line
	3700 4400 8150 4400
Connection ~ 6700 4250
Wire Wire Line
	6700 5600 6700 4950
Wire Wire Line
	6700 2500 6700 3300
Wire Wire Line
	3550 2500 9800 2500
$Comp
L TPHR8504PL Q6
U 1 1 581AD765
P 7350 3500
F 0 "Q6" V 7500 3350 50  0000 L CNN
F 1 "TPH2R608NH" V 7300 2800 50  0000 L CNN
F 2 "power_bridge:DSOP_ADVANCE" V 7400 2800 50  0001 L CNN
F 3 "" H 7250 3500 50  0000 L CNN
	1    7350 3500
	1    0    0    -1  
$EndComp
Wire Wire Line
	7350 3700 7350 4550
Connection ~ 6300 3150
Wire Wire Line
	7350 2500 7350 3300
Connection ~ 6700 2500
$Comp
L TPHR8504PL Q14
U 1 1 581AD770
P 7350 4750
F 0 "Q14" V 7500 4600 50  0000 L CNN
F 1 "TPH2R608NH" V 7300 4050 50  0000 L CNN
F 2 "power_bridge:DSOP_ADVANCE" V 7400 4050 50  0001 L CNN
F 3 "" H 7250 4750 50  0000 L CNN
	1    7350 4750
	1    0    0    -1  
$EndComp
Wire Wire Line
	6950 4400 6950 4800
Wire Wire Line
	6950 4800 7050 4800
Connection ~ 6300 4400
Connection ~ 7350 4250
Wire Wire Line
	7350 5600 7350 4950
Connection ~ 6700 5600
$Comp
L TPHR8504PL Q7
U 1 1 581AD77D
P 7950 3500
F 0 "Q7" V 8100 3350 50  0000 L CNN
F 1 "TPH2R608NH" V 7900 2800 50  0000 L CNN
F 2 "power_bridge:DSOP_ADVANCE" V 8000 2800 50  0001 L CNN
F 3 "" H 7850 3500 50  0000 L CNN
	1    7950 3500
	1    0    0    -1  
$EndComp
Wire Wire Line
	7950 3700 7950 4550
Wire Wire Line
	7650 3550 7550 3550
Wire Wire Line
	7550 3550 7550 3150
Connection ~ 6950 3150
Wire Wire Line
	7050 3550 6950 3550
Wire Wire Line
	6950 3550 6950 3150
Wire Wire Line
	7950 2500 7950 3300
Connection ~ 7350 2500
$Comp
L TPHR8504PL Q15
U 1 1 581AD78C
P 7950 4750
F 0 "Q15" V 8100 4600 50  0000 L CNN
F 1 "TPH2R608NH" V 7900 4050 50  0000 L CNN
F 2 "power_bridge:DSOP_ADVANCE" V 8000 4050 50  0001 L CNN
F 3 "" H 7850 4750 50  0000 L CNN
	1    7950 4750
	1    0    0    -1  
$EndComp
Wire Wire Line
	7550 4400 7550 4800
Wire Wire Line
	7550 4800 7650 4800
Connection ~ 6950 4400
Connection ~ 7950 4250
Wire Wire Line
	7950 5600 7950 4950
Connection ~ 7350 5600
$Comp
L TPHR8504PL Q8
U 1 1 581AD799
P 8550 3500
F 0 "Q8" V 8700 3350 50  0000 L CNN
F 1 "TPH2R608NH" V 8500 2800 50  0000 L CNN
F 2 "power_bridge:DSOP_ADVANCE" V 8600 2800 50  0001 L CNN
F 3 "" H 8450 3500 50  0000 L CNN
	1    8550 3500
	1    0    0    -1  
$EndComp
Wire Wire Line
	8150 3150 8150 3550
Wire Wire Line
	8150 3550 8250 3550
Connection ~ 7550 3150
Wire Wire Line
	8550 2500 8550 3300
Connection ~ 7950 2500
Wire Wire Line
	8550 3700 8550 4550
$Comp
L TPHR8504PL Q16
U 1 1 581AD7A6
P 8550 4750
F 0 "Q16" V 8700 4600 50  0000 L CNN
F 1 "TPH2R608NH" V 8500 4050 50  0000 L CNN
F 2 "power_bridge:DSOP_ADVANCE" V 8600 4050 50  0001 L CNN
F 3 "" H 8450 4750 50  0000 L CNN
	1    8550 4750
	1    0    0    -1  
$EndComp
Wire Wire Line
	8150 4400 8150 4800
Wire Wire Line
	8150 4800 8250 4800
Connection ~ 7550 4400
Connection ~ 8550 4250
Wire Wire Line
	8550 5600 8550 4950
Connection ~ 7950 5600
$Comp
L C C3
U 1 1 581AD7B3
P 8950 5150
F 0 "C3" V 8900 4750 50  0000 L CNN
F 1 "10µ100V" V 9000 4750 50  0000 L CNN
F 2 "Capacitors_SMD:C_2220" H 8988 5000 50  0001 C CNN
F 3 "" H 8950 5150 50  0000 C CNN
	1    8950 5150
	1    0    0    -1  
$EndComp
Wire Wire Line
	8950 2500 8950 5000
Connection ~ 8550 2500
Wire Wire Line
	8950 5600 8950 5300
Connection ~ 8550 5600
Connection ~ 8950 5600
$Comp
L C C2
U 1 1 581AD7BF
P 9800 4900
F 0 "C2" V 9750 4500 50  0000 L CNN
F 1 "100n100V" V 9850 4450 50  0000 L CNN
F 2 "Capacitors_SMD:C_1206" H 9838 4750 50  0001 C CNN
F 3 "" H 9800 4900 50  0000 C CNN
	1    9800 4900
	1    0    0    -1  
$EndComp
Wire Wire Line
	9800 5600 9800 5050
Wire Wire Line
	9800 3750 9800 4750
Text Notes 9350 5500 1    60   ~ 0
Low ESR \n470µV 100V\nsoldered directly
Wire Wire Line
	6050 4950 6050 5600
Connection ~ 6050 5600
Connection ~ 6050 2500
Wire Wire Line
	5600 4800 5750 4800
Wire Wire Line
	5600 3550 5750 3550
Wire Wire Line
	5600 3150 5600 3550
Wire Wire Line
	5600 4400 5600 4800
Text HLabel 3400 5600 0    60   Input ~ 0
PWR_GND
Text HLabel 3450 4800 0    60   Input ~ 0
LOWSIDE_GATE
Text HLabel 10150 4250 2    60   Output ~ 0
PHASE_OUT
Wire Wire Line
	3450 4250 10150 4250
Text HLabel 3500 3550 0    60   Input ~ 0
HIGHSIDE_GATE
Text HLabel 3550 2500 0    60   Input ~ 0
BAT+
Connection ~ 9800 4250
$Comp
L TPHR8504PL Q1
U 1 1 58220504
P 4100 3500
F 0 "Q1" V 4250 3350 50  0000 L CNN
F 1 "TPH2R608NH" V 4050 2800 50  0000 L CNN
F 2 "power_bridge:DSOP_ADVANCE" V 4150 2800 50  0001 L CNN
F 3 "" H 4000 3500 50  0000 L CNN
	1    4100 3500
	1    0    0    -1  
$EndComp
$Comp
L TPHR8504PL Q9
U 1 1 5822050A
P 4100 4750
F 0 "Q9" V 4250 4600 50  0000 L CNN
F 1 "TPH2R608NH" V 4050 4050 50  0000 L CNN
F 2 "power_bridge:DSOP_ADVANCE" V 4150 4050 50  0001 L CNN
F 3 "" H 4000 4750 50  0000 L CNN
	1    4100 4750
	1    0    0    -1  
$EndComp
Wire Wire Line
	3500 3550 3800 3550
Wire Wire Line
	3700 3550 3700 3150
Wire Wire Line
	4100 3700 4100 4550
Wire Wire Line
	3450 4800 3800 4800
Wire Wire Line
	3700 4800 3700 4400
Connection ~ 4100 4250
Wire Wire Line
	4100 5600 4100 4950
Wire Wire Line
	4100 2500 4100 3300
$Comp
L TPHR8504PL Q2
U 1 1 58220521
P 4750 3500
F 0 "Q2" V 4900 3350 50  0000 L CNN
F 1 "TPH2R608NH" V 4700 2800 50  0000 L CNN
F 2 "power_bridge:DSOP_ADVANCE" V 4800 2800 50  0001 L CNN
F 3 "" H 4650 3500 50  0000 L CNN
	1    4750 3500
	1    0    0    -1  
$EndComp
Wire Wire Line
	4750 3700 4750 4550
Wire Wire Line
	4750 2500 4750 3300
$Comp
L TPHR8504PL Q10
U 1 1 5822052B
P 4750 4750
F 0 "Q10" V 4900 4600 50  0000 L CNN
F 1 "TPH2R608NH" V 4700 4050 50  0000 L CNN
F 2 "power_bridge:DSOP_ADVANCE" V 4800 4050 50  0001 L CNN
F 3 "" H 4650 4750 50  0000 L CNN
	1    4750 4750
	1    0    0    -1  
$EndComp
Wire Wire Line
	4350 4400 4350 4800
Wire Wire Line
	4350 4800 4450 4800
Connection ~ 4750 4250
Wire Wire Line
	4750 5600 4750 4950
$Comp
L TPHR8504PL Q3
U 1 1 58220536
P 5350 3500
F 0 "Q3" V 5500 3350 50  0000 L CNN
F 1 "TPH2R608NH" V 5300 2800 50  0000 L CNN
F 2 "power_bridge:DSOP_ADVANCE" V 5400 2800 50  0001 L CNN
F 3 "" H 5250 3500 50  0000 L CNN
	1    5350 3500
	1    0    0    -1  
$EndComp
Wire Wire Line
	5350 3700 5350 4550
Wire Wire Line
	5050 3550 4950 3550
Wire Wire Line
	4950 3550 4950 3150
Connection ~ 4350 3150
Wire Wire Line
	4450 3550 4350 3550
Wire Wire Line
	4350 3550 4350 3150
Wire Wire Line
	5350 2500 5350 3300
$Comp
L TPHR8504PL Q11
U 1 1 58220544
P 5350 4750
F 0 "Q11" V 5500 4600 50  0000 L CNN
F 1 "TPH2R608NH" V 5300 4050 50  0000 L CNN
F 2 "power_bridge:DSOP_ADVANCE" V 5400 4050 50  0001 L CNN
F 3 "" H 5250 4750 50  0000 L CNN
	1    5350 4750
	1    0    0    -1  
$EndComp
Wire Wire Line
	4950 4400 4950 4800
Wire Wire Line
	4950 4800 5050 4800
Connection ~ 4350 4400
Connection ~ 5350 4250
Wire Wire Line
	5350 5600 5350 4950
Connection ~ 4950 3150
Connection ~ 4950 4400
Connection ~ 5600 3150
Connection ~ 5600 4400
Connection ~ 3700 3550
Connection ~ 3700 4800
Connection ~ 4100 2500
Connection ~ 4750 2500
Connection ~ 5350 2500
Connection ~ 5350 5600
Connection ~ 4750 5600
Connection ~ 4100 5600
Text HLabel 3450 4250 0    60   Output ~ 0
PHASE
$Comp
L C C1
U 1 1 5842AFC3
P 9800 3600
F 0 "C1" V 9750 3200 50  0000 L CNN
F 1 "100n100V" V 9850 3150 50  0000 L CNN
F 2 "Capacitors_SMD:C_1206" H 9838 3450 50  0001 C CNN
F 3 "" H 9800 3600 50  0000 C CNN
	1    9800 3600
	1    0    0    -1  
$EndComp
Connection ~ 8950 2500
Wire Wire Line
	9800 5600 3400 5600
Wire Wire Line
	9800 2500 9800 3450
$EndSCHEMATC
